\relax 
\@writefile{toc}{\contentsline {section}{\numberline {1}PHP Initilization}{1}}
\@writefile{toc}{\contentsline {section}{\numberline {2}Comments}{1}}
\@writefile{toc}{\contentsline {section}{\numberline {3}Print}{1}}
\@writefile{toc}{\contentsline {section}{\numberline {4}Varibales}{1}}
\@writefile{toc}{\contentsline {section}{\numberline {5}Concat}{1}}
\@writefile{toc}{\contentsline {section}{\numberline {6}Line Break}{2}}
\@writefile{toc}{\contentsline {section}{\numberline {7}Math}{2}}
\@writefile{toc}{\contentsline {section}{\numberline {8}Array}{2}}
\@writefile{toc}{\contentsline {section}{\numberline {9}Associtative Array}{2}}
\@writefile{toc}{\contentsline {section}{\numberline {10}if Statement}{2}}
\@writefile{toc}{\contentsline {section}{\numberline {11}Bool Operators}{3}}
\@writefile{toc}{\contentsline {section}{\numberline {12}while Loop}{3}}
\@writefile{toc}{\contentsline {section}{\numberline {13}for Loop}{3}}
